<?xml version="1.0" encoding="UTF-8" standalone="no"?>
<!-- Created with Inkscape (http://www.inkscape.org/) -->
<svg id="svg2" xmlns:rdf="http://www.w3.org/1999/02/22-rdf-syntax-ns#" xmlns="http://www.w3.org/2000/svg" xml:space="preserve" height="91.964" viewBox="0 0 99.994797 91.9636" width="99.995" version="1.1" xmlns:cc="http://creativecommons.org/ns#" xmlns:dc="http://purl.org/dc/elements/1.1/"><metadata id="metadata8"><rdf:RDF><cc:Work rdf:about=""><dc:format>image/svg+xml</dc:format><dc:type rdf:resource="http://purl.org/dc/dcmitype/StillImage"/><dc:title/></cc:Work></rdf:RDF></metadata><defs id="defs6"><clipPath id="clipPath18" clipPathUnits="userSpaceOnUse"><path id="path16" d="m0 68.973h74.996v-68.973h-74.996z"/></clipPath></defs><g id="g10" transform="matrix(1.3333 0 0 -1.3333 0 91.964)"><g id="g12"><g id="g14" clip-path="url(#clipPath18)"><g id="g20" transform="translate(74.402 9.0781)"><path id="path22" d="m0 0c0-4.297-1.008-4.215-5.51-4.215h-60.738c-4.504 0-8.154 3.485-8.154 7.781v36.526c0 4.297 3.65 7.783 8.154 7.783h60.303c4.504 0 5.945-1.541 5.945-5.838z" fill="#525252"/></g><g id="g24" transform="translate(72.816 10.375)"><path id="path26" d="m0 0c0-4.297-1.236-4.215-5.547-4.215h-57.879c-4.31 0-7.806 3.485-7.806 7.781v33.231c0 4.297 3.496 7.781 7.806 7.781h58.387c4.312 0 5.039-1.971 5.039-6.267z" fill="#444545"/></g><g id="g28" transform="translate(69.943 50.912)"><path id="path30" d="m0 0-51.225 6.832-2.955-22.166 51.225-6.828z" fill="#63bd6e"/></g><g id="g32" transform="translate(68.43 49.555)"><path id="path34" d="m0 0-48.609 6.48-2.547-19.099 48.611-6.479zm-2.178-19.678-49.484 6.598 2.685 20.142 49.485-6.599z" fill="#117f4a"/></g><g id="g36" transform="translate(51.594 42.08)"><path id="path38" d="m0 0c0.645 4.828-2.748 9.264-7.576 9.91-4.828 0.643-9.266-2.75-9.906-7.578-0.647-4.828 2.746-9.266 7.576-9.908 4.828-0.645 9.263 2.748 9.906 7.576" fill="#117f4a"/></g><g id="g40" transform="translate(42.709 38.522)"><path id="path42" d="m0 0c0.473 0.004 0.891 0.195 1.25 0.574 0.357 0.377 0.578 0.871 0.66 1.481 0.072 0.523 0.02 0.957-0.152 1.299-0.17 0.345-0.563 0.685-1.172 1.021zm0.619 10.021c-0.474-0.025-0.867-0.203-1.187-0.533-0.315-0.328-0.506-0.738-0.571-1.228-0.064-0.489-0.007-0.916 0.176-1.278 0.182-0.361 0.531-0.675 1.051-0.945zm-1.678-12.572 0.194 1.438c-0.586 0.166-1.051 0.39-1.391 0.676-0.342 0.283-0.615 0.699-0.816 1.246-0.207 0.546-0.282 1.201-0.227 1.959l1.233 0.099c-0.012-0.773 0.078-1.361 0.265-1.763 0.264-0.555 0.633-0.891 1.094-1.01l0.613 4.572c-0.476 0.174-0.949 0.471-1.422 0.887-0.347 0.301-0.591 0.691-0.734 1.17-0.145 0.478-0.178 1.007-0.102 1.584 0.137 1.023 0.545 1.81 1.229 2.361 0.465 0.369 1.1 0.551 1.9 0.543l0.092 0.687 0.707-0.095-0.094-0.686c0.68-0.179 1.2-0.496 1.551-0.953 0.455-0.592 0.678-1.353 0.666-2.281l-1.267-0.049c0.006 0.576-0.084 1.029-0.268 1.357-0.182 0.33-0.463 0.569-0.84 0.719l-0.553-4.146c0.577-0.254 0.956-0.45 1.141-0.584 0.346-0.246 0.615-0.526 0.807-0.84 0.195-0.315 0.33-0.672 0.404-1.076 0.076-0.403 0.084-0.828 0.025-1.274-0.136-1.002-0.507-1.799-1.123-2.392-0.613-0.594-1.341-0.858-2.181-0.789l-0.194-1.454z" fill="#63bd6e"/></g><g id="g44" transform="translate(56.086 68.973)"><path id="path46" d="m0 0-47.057-21.365 9.244-20.36 47.055 21.362z" fill="#63bd6e"/></g><g id="g48" transform="translate(55.523 67.018)"><path id="path50" d="m0 0-44.654-20.271 7.966-17.547 44.655 20.273zm8.586-17.84-45.461-20.637-8.398 18.502 45.459 20.637z" fill="#117f4a"/></g><g id="g52" transform="translate(45.211 51.756)"><path id="path54" d="m0 0c-2.014 4.436-7.242 6.398-11.68 4.385-4.435-2.014-6.398-7.242-4.382-11.678 2.013-4.436 7.242-6.4 11.677-4.385 4.436 2.012 6.399 7.242 4.385 11.678" fill="#117f4a"/></g><g id="g56" transform="translate(39.564 44.027)"><path id="path58" d="m0 0c0.398 0.252 0.646 0.635 0.752 1.148 0.103 0.51 0.029 1.045-0.227 1.608-0.214 0.48-0.488 0.82-0.814 1.019-0.328 0.202-0.84 0.284-1.537 0.245zm-4.791 8.824c-0.389-0.273-0.627-0.633-0.723-1.078-0.091-0.447-0.037-0.896 0.168-1.346 0.203-0.451 0.479-0.781 0.825-0.992 0.347-0.209 0.812-0.291 1.39-0.244zm5.242-11.547-0.597 1.319c-0.586-0.17-1.1-0.225-1.538-0.164-0.439 0.06-0.892 0.265-1.355 0.625-0.461 0.355-0.873 0.869-1.229 1.541l0.993 0.74c0.402-0.664 0.789-1.117 1.16-1.358 0.519-0.33 1.008-0.421 1.465-0.275l-1.909 4.199c-0.494-0.103-1.052-0.103-1.671 0-0.456 0.071-0.87 0.274-1.245 0.602-0.375 0.33-0.685 0.76-0.925 1.289-0.426 0.941-0.496 1.826-0.211 2.656 0.199 0.561 0.64 1.049 1.324 1.467l-0.285 0.631 0.648 0.295 0.287-0.631c0.668 0.207 1.278 0.211 1.817 0.014 0.701-0.262 1.295-0.789 1.775-1.584l-1.047-0.711c-0.304 0.49-0.619 0.824-0.949 1.007-0.328 0.184-0.693 0.239-1.092 0.165l1.729-3.809c0.623 0.09 1.049 0.125 1.277 0.109 0.422-0.025 0.801-0.119 1.131-0.285 0.332-0.16 0.633-0.394 0.912-0.695 0.279-0.303 0.51-0.658 0.695-1.07 0.418-0.92 0.524-1.793 0.319-2.622-0.209-0.83-0.686-1.439-1.434-1.826l0.606-1.334z" fill="#63bd6e"/></g><g id="g60" transform="translate(71,5.5117)"><path id="path62" d="m0 0c0-4.297-1.701-5.512-5.998-5.512h-60.627c-4.297 0-4.375 0.405-4.375 4.701v44.038s0.049 1.054 0.102 1.709c0.113 1.478 1.195 2.937 1.195 2.937s0.648-2.703 2.484-3.457c2.877-1.184 5.11-1.082 5.11-1.082h56.111c4.297 0 5.998-0.564 5.998-4.861z" fill="#616161"/></g><g id="g64" transform="translate(5.1348 45.898)"><path id="path66" d="m0 0l-4 0.002c-0.553 0-1 0.449-1 1 0 0.553 0.447 1 1 1l4-0.002c0.553 0 1-0.447 1-1s-0.447-1-1-1" fill="#717171"/></g><g id="g68" transform="translate(21.248 45.893)"><path id="path70" d="m0 0l-8.057 0.002c-0.552 0-1 0.449-1 1.002 0 0.551 0.448 0.998 1 0.998l8.057-0.002c0.553 0 1-0.449 1-1.002 0-0.551-0.447-0.998-1-0.998m16.113-0.008h-0.002l-8.056 0.004c-0.551 0-1 0.447-0.998 1 0 0.553 0.447 1 1 1l8.056-0.004c0.553 0 1-0.449 1-1-0.002-0.553-0.449-1-1-1m16.112-0.008l-8.057 0.004c-0.553 0-1 0.449-1 1 0 0.553 0.449 1 1 1h0.002l8.057-0.004c0.55 0 0.998-0.447 0.998-1 0-0.552-0.448-1-1-1m15.111-2.343c-0.424 0-0.818 0.273-0.953 0.699-0.283 0.898-0.772 1.64-3.871 1.64l-2.231 0.002c-0.552 0-1 0.448-1 1 0 0.553 0.448 1 1 1l2.231-0.002c2.502 0 4.933-0.367 5.779-3.037 0.166-0.527-0.127-1.089-0.652-1.256-0.102-0.031-0.203-0.046-0.303-0.046m0.309-16.082c-0.553 0-1 0.447-1 1v8.056c0 0.551 0.447 1 1 1 0.552 0 1-0.449 1-1v-8.056c0-0.553-0.448-1-1-1m0-16.114c-0.553 0-1 0.448-1 1v8.057c0 0.553 0.447 1 1 1 0.552 0 1-0.447 1-1v-8.057c0-0.552-0.448-1-1-1m-47.606-10.14h-8.057c-0.552 0-1 0.447-1 1 0 0.552 0.448 1 1 1h8.057c0.553 0 1-0.448 1-1 0-0.553-0.447-1-1-1m16.113 0h-8.056c-0.553 0-1 0.447-1 1 0 0.552 0.447 1 1 1h8.056c0.551 0 1-0.448 1-1 0-0.553-0.449-1-1-1m16.114 0h-8.057c-0.553 0-1 0.447-1 1 0 0.552 0.447 1 1 1h8.057c0.55 0 1-0.448 1-1 0-0.553-0.45-1-1-1m10.029 0h-1.975c-0.55 0-1 0.447-1 1 0 0.552 0.45 1 1 1h1.975c3.334 0 3.885 0.291 4.172 1.361 0.142 0.533 0.687 0.854 1.224 0.707 0.534-0.143 0.852-0.689 0.707-1.225-0.759-2.843-3.355-2.843-6.103-2.843" fill="#717171"/></g><g id="g72" transform="translate(5.1348,1.1973)"><path id="path74" d="m0 0h-4c-0.553 0-1 0.447-1 1s0.447 1 1 1h4c0.553 0 1-0.447 1-1s-0.447-1-1-1" fill="#717171"/></g><g id="g76" transform="translate(67.158 7.4121)"><path id="path78" d="m0 0c0-3.645-1.281-3.92-5.012-3.92h-62.039v42.221l62.239-0.028c3.734 0 4.812-1.031 4.812-4.673z" fill="#616161"/></g><g id="g80" transform="translate(74.537 22.748)"><path id="path82" d="m0 0h-19.453c-1.258 0-3.606 2.254-3.606 6.803s2.348 6.674 3.606 6.674h19.453c0.646 0 0.576-13.477 0-13.477" fill="#727172"/></g><g id="g84" transform="translate(74.537 21.668)"><path id="path86" d="m0 0h-19.453c-1.258 0-3.606 2.252-3.606 6.801s2.348 6.676 3.606 6.676h19.453c0.646 0 0.576-13.477 0-13.477" fill="#575656"/></g><g id="g88" transform="translate(60.139 28.367)"><path id="path90" d="m0 0c0-1.641-1.137-2.971-2.539-2.971s-2.539 1.33-2.539 2.971c0 1.643 1.137 2.973 2.539 2.973s2.539-1.33 2.539-2.973" fill="#d6cb78"/></g><g id="g92" transform="translate(59.644 28.367)"><path id="path94" d="m0 0c0-1.322-0.914-2.395-2.045-2.395s-2.045 1.073-2.045 2.395 0.914 2.396 2.045 2.396 2.045-1.074 2.045-2.396" fill="#ece17e"/></g></g></g></g></svg>
